…
<br>

#### Summary of the number of water systems out of total for a state (plus DC & PR) that had a health based violation and returned to compliance over the 2008-2016 period:

``` r
merge1_binary %>% filter(PWS_TYPE_CODE == "CWS", STATE_CODE %in% c(state.abb, "DC", "PR")) %>% 
  count(STATE_CODE, RTC_y08y16_HB) %>% 
  group_by(STATE_CODE) %>% 
  tidyr::spread(key = RTC_y08y16_HB, value = n, sep = "_") %>% 
  mutate(Total = RTC_y08y16_HB_0 + RTC_y08y16_HB_1, 
         Prop_RTC_y08y16_HB_1 = round(RTC_y08y16_HB_1/Total, 2)) %>% 
  arrange(desc(Prop_RTC_y08y16_HB_1))
```

    ## # A tibble: 52 x 5
    ## # Groups:   STATE_CODE [52]
    ##    STATE_CODE RTC_y08y16_HB_0 RTC_y08y16_HB_1 Total Prop_RTC_y08y16_HB_1
    ##    <chr>                <int>           <int> <int>                <dbl>
    ##  1 OK                     167             767   934                 0.82
    ##  2 AR                     219             472   691                 0.68
    ##  3 DC                       1               2     3                 0.67
    ##  4 MO                     563             863  1426                 0.61
    ##  5 NM                     275             348   623                 0.56
    ##  6 VT                     177             222   399                 0.56
    ##  7 MT                     359             426   785                 0.54
    ##  8 KY                     192             199   391                 0.51
    ##  9 AK                     199             202   401                 0.5 
    ## 10 SD                     253             257   510                 0.5 
    ## # ... with 42 more rows
…
