…
<br>

#### Summary of the number of water systems out of total for a state (plus DC & PR) that had a health based violation and returned to compliance over the 2008-2016 period:

``` r
merge1_binary %>% filter(PWS_TYPE_CODE == "CWS", STATE_CODE %in% c(state.abb, "DC", "PR")) %>% 
  count(STATE_CODE, RTC_y08y16_HB) %>% 
  group_by(STATE_CODE) %>% 
  tidyr::spread(key = RTC_y08y16_HB, value = n, sep = "_") %>% 
  mutate(Total = RTC_y08y16_HB_0 + RTC_y08y16_HB_1, 
         Prop_RTC_y08y16_HB_1 = round(RTC_y08y16_HB_1/Total, 2)) %>% 
  arrange(desc(Prop_RTC_y08y16_HB_1))
```

    ## # A tibble: 52 x 5
    ## # Groups:   STATE_CODE [52]
    ##    STATE_CODE RTC_y08y16_HB_0 RTC_y08y16_HB_1 Total Prop_RTC_y08y16_HB_1
    ##    <chr>                <int>           <int> <int>                <dbl>
    ##  1 DC                       1               2     3                 0.67
    ##  2 AR                     304             387   691                 0.56
    ##  3 KY                     192             199   391                 0.51
    ##  4 NM                     310             313   623                 0.5 
    ##  5 SD                     261             249   510                 0.49
    ##  6 NH                     355             329   684                 0.48
    ##  7 OK                     483             451   934                 0.48
    ##  8 MA                     300             263   563                 0.47
    ##  9 PR                     215             188   403                 0.47
    ## 10 AK                     219             182   401                 0.45
    ## # ... with 42 more rows
…
